^C:\USERS\SWEYLO\DOCUMENTS\PROJECTS\INFINIFLOAT\INFINIFLOAT_TEST.CPP
/c /ZI /nologo /W3 /WX- /Od /Oy- /D WIN32 /D _DEBUG /D _CONSOLE /D _UNICODE /D UNICODE /Gm /EHsc /RTC1 /MDd /GS /fp:precise /Zc:wchar_t /Zc:forScope /Fo"DEBUG\\" /Fd"DEBUG\VC110.PDB" /Gd /TP /analyze- C:\USERS\SWEYLO\DOCUMENTS\PROJECTS\INFINIFLOAT\INFINIFLOAT_TEST.CPP
^C:\USERS\NICHOLL3\DESKTOP\INFINIFLOAT\INFINIFLOAT_TEST.CPP
/c /ZI /nologo /W3 /WX- /Od /Oy- /D WIN32 /D _DEBUG /D _CONSOLE /D _UNICODE /D UNICODE /Gm /EHsc /RTC1 /MDd /GS /fp:precise /Zc:wchar_t /Zc:forScope /Fo"DEBUG\\" /Fd"DEBUG\VC110.PDB" /Gd /TP /analyze- C:\USERS\NICHOLL3\DESKTOP\INFINIFLOAT\INFINIFLOAT_TEST.CPP
^C:\USERS\SWEYLO\DESKTOP\INFINIFLOAT\INFINIFLOAT_TEST.CPP
/c /ZI /nologo /W3 /WX- /Od /Oy- /D WIN32 /D _DEBUG /D _CONSOLE /D _UNICODE /D UNICODE /Gm /EHsc /RTC1 /MDd /GS /fp:precise /Zc:wchar_t /Zc:forScope /Fo"DEBUG\\" /Fd"DEBUG\VC110.PDB" /Gd /TP /analyze- C:\USERS\SWEYLO\DESKTOP\INFINIFLOAT\INFINIFLOAT_TEST.CPP
