^C:\USERS\SWEYLO\DOCUMENTS\PROJECTS\INFINIFLOAT\DEBUG\INFINIFLOAT_TEST.OBJ
/OUT:"C:\USERS\SWEYLO\DOCUMENTS\PROJECTS\INFINIFLOAT\DEBUG\INFINIFLOAT.EXE" /INCREMENTAL /NOLOGO kernel32.lib user32.lib gdi32.lib winspool.lib comdlg32.lib advapi32.lib shell32.lib ole32.lib oleaut32.lib uuid.lib odbc32.lib odbccp32.lib /MANIFEST /MANIFESTUAC:"level='asInvoker' uiAccess='false'" /manifest:embed /DEBUG /PDB:"C:\USERS\SWEYLO\DOCUMENTS\PROJECTS\INFINIFLOAT\DEBUG\INFINIFLOAT.PDB" /SUBSYSTEM:CONSOLE /TLBID:1 /DYNAMICBASE /NXCOMPAT /IMPLIB:"C:\USERS\SWEYLO\DOCUMENTS\PROJECTS\INFINIFLOAT\DEBUG\INFINIFLOAT.LIB" /MACHINE:X86 DEBUG\INFINIFLOAT_TEST.OBJ
^C:\USERS\NICHOLL3\DESKTOP\INFINIFLOAT\DEBUG\INFINIFLOAT_TEST.OBJ
/OUT:"C:\USERS\NICHOLL3\DESKTOP\INFINIFLOAT\DEBUG\INFINIFLOAT.EXE" /INCREMENTAL /NOLOGO kernel32.lib user32.lib gdi32.lib winspool.lib comdlg32.lib advapi32.lib shell32.lib ole32.lib oleaut32.lib uuid.lib odbc32.lib odbccp32.lib /MANIFEST /MANIFESTUAC:"level='asInvoker' uiAccess='false'" /manifest:embed /DEBUG /PDB:"C:\USERS\NICHOLL3\DESKTOP\INFINIFLOAT\DEBUG\INFINIFLOAT.PDB" /SUBSYSTEM:CONSOLE /TLBID:1 /DYNAMICBASE /NXCOMPAT /IMPLIB:"C:\USERS\NICHOLL3\DESKTOP\INFINIFLOAT\DEBUG\INFINIFLOAT.LIB" /MACHINE:X86 DEBUG\INFINIFLOAT_TEST.OBJ
^C:\USERS\SWEYLO\DESKTOP\INFINIFLOAT\DEBUG\INFINIFLOAT_TEST.OBJ
/OUT:"C:\USERS\SWEYLO\DESKTOP\INFINIFLOAT\DEBUG\INFINIFLOAT.EXE" /INCREMENTAL /NOLOGO kernel32.lib user32.lib gdi32.lib winspool.lib comdlg32.lib advapi32.lib shell32.lib ole32.lib oleaut32.lib uuid.lib odbc32.lib odbccp32.lib /MANIFEST /MANIFESTUAC:"level='asInvoker' uiAccess='false'" /manifest:embed /DEBUG /PDB:"C:\USERS\SWEYLO\DESKTOP\INFINIFLOAT\DEBUG\INFINIFLOAT.PDB" /SUBSYSTEM:CONSOLE /TLBID:1 /DYNAMICBASE /NXCOMPAT /IMPLIB:"C:\USERS\SWEYLO\DESKTOP\INFINIFLOAT\DEBUG\INFINIFLOAT.LIB" /MACHINE:X86 DEBUG\INFINIFLOAT_TEST.OBJ
